{"name":"getUsers","id":"SerenityInitialTest:getUsers","testCaseName":"SerenityInitialTest","testSteps":[{"number":1,"description":"Carolina executes a GET on the resource /users?page\u003d2","duration":69,"startTime":"2020-06-02T15:28:48.787-05:00[America/Bogota]","result":"SUCCESS","precondition":false,"children":[{"number":2,"description":"GET http://localhost:5000/api/users?page\u003d2\r\r","duration":0,"startTime":"2020-06-02T15:28:48.856-05:00[America/Bogota]","result":"SUCCESS","restQuery":{"method":"GET","path":"http://localhost:5000/api/users?page\u003d2\r\r","content":"\r","contentType":"null","requestHeaders":"Accept\u003d*/*\r\r","requestCookies":"\r\r","responseHeaders":"X-Powered-By: Express\nAccess-Control-Allow-Origin: *\nContent-Type: application/json; charset\u003dutf-8\nContent-Length: 540\nETag: W/\"21c-V3l8h04l5/8zLV+i3u8GJo8G3Y8\"\nDate: Tue, 02 Jun 2020 20:28:48 GMT\nConnection: keep-alive\r","responseCookies":"\r","responseBody":"{\n    \"page\": 2,\n    \"per_page\": 3,\n    \"total\": 12,\n    \"total_pages\": 4,\n    \"data\": [\n        {\n            \"id\": 4,\n            \"email\": \"eve.holt@reqres.in\",\n            \"first_name\": \"Eve\",\n            \"last_name\": \"Holt\",\n            \"avatar\": \"https://s3.amazonaws.com/uifaces/faces/twitter/marcoramires/128.jpg\"\n        },\n        {\n            \"id\": 5,\n            \"email\": \"charles.morris@reqres.in\",\n            \"first_name\": \"Charles\",\n            \"last_name\": \"Morris\",\n            \"avatar\": \"https://s3.amazonaws.com/uifaces/faces/twitter/stephenmoon/128.jpg\"\n        },\n        {\n            \"id\": 6,\n            \"email\": \"tracey.ramos@reqres.in\",\n            \"first_name\": \"Tracey\",\n            \"last_name\": \"Ramos\",\n            \"avatar\": \"https://s3.amazonaws.com/uifaces/faces/twitter/bigmancho/128.jpg\"\n        }\n    ]\n}","statusCode":200},"precondition":false}]}],"userStory":{"id":"SerenityInitialTest","storyName":"Serenity initial test","storyClassName":"SerenityInitialTest","path":"","type":"story"},"featureTag":{"name":"Serenity initial test","type":"story"},"title":"Get users","tags":[{"name":"Serenity initial test","type":"story"}],"startTime":"2020-06-02T15:28:48.777-05:00[America/Bogota]","duration":81,"projectKey":"","manual":false,"testSource":"JUnit","actors":[{"name":"Carolina","can":["call an API at http://localhost:5000/api"]}],"result":"SUCCESS"}