{"name":"initialTest","id":"SerenityInitialTest:initialTest","testCaseName":"SerenityInitialTest","testSteps":[{"number":1,"description":"Carolina executes a GET on the resource /users?page\u003d3","duration":11289,"startTime":"2020-06-02T16:33:05.822-05:00[America/Bogota]","result":"SUCCESS","precondition":false,"children":[{"number":2,"description":"GET http://localhost:5000/api/users?page\u003d3\r\r","duration":2,"startTime":"2020-06-02T16:33:17.102-05:00[America/Bogota]","result":"SUCCESS","restQuery":{"method":"GET","path":"http://localhost:5000/api/users?page\u003d3\r\r","content":"\r","contentType":"application/json","requestHeaders":"header1\u003dvalue1\r\n\t\t\t\tAccept\u003d*/*\r\n\t\t\t\tContent-Type\u003dapplication/json; charset\u003dUTF-8\r\r","requestCookies":"\r\r","responseHeaders":"X-Powered-By: Express\nAccess-Control-Allow-Origin: *\nContent-Type: application/json; charset\u003dutf-8\nContent-Length: 552\nETag: W/\"228-LTenQYC7VQXSGx2BZ+/SbxOA/Wg\"\nDate: Tue, 02 Jun 2020 21:33:16 GMT\nConnection: keep-alive\r","responseCookies":"\r","responseBody":"{\n    \"page\": 3,\n    \"per_page\": 3,\n    \"total\": 12,\n    \"total_pages\": 4,\n    \"data\": [\n        {\n            \"id\": 7,\n            \"email\": \"michael.lawson@reqres.in\",\n            \"first_name\": \"Michael\",\n            \"last_name\": \"Lawson\",\n            \"avatar\": \"https://s3.amazonaws.com/uifaces/faces/twitter/follettkyle/128.jpg\"\n        },\n        {\n            \"id\": 8,\n            \"email\": \"lindsay.ferguson@reqres.in\",\n            \"first_name\": \"Lindsay\",\n            \"last_name\": \"Ferguson\",\n            \"avatar\": \"https://s3.amazonaws.com/uifaces/faces/twitter/araa3185/128.jpg\"\n        },\n        {\n            \"id\": 9,\n            \"email\": \"tobias.funke@reqres.in\",\n            \"first_name\": \"Tobias\",\n            \"last_name\": \"Funke\",\n            \"avatar\": \"https://s3.amazonaws.com/uifaces/faces/twitter/vivekprvr/128.jpg\"\n        }\n    ]\n}","statusCode":200},"precondition":false}]},{"number":3,"description":"Then El c\u0026oacute;digo de respuesta should be (200)","duration":43,"startTime":"2020-06-02T16:33:17.327-05:00[America/Bogota]","result":"SUCCESS","precondition":false}],"userStory":{"id":"SerenityInitialTest","storyName":"Serenity initial test","storyClassName":"SerenityInitialTest","path":"","type":"story"},"featureTag":{"name":"Serenity initial test","type":"story"},"title":"Initial test","tags":[{"name":"Serenity initial test","type":"story"}],"startTime":"2020-06-02T16:33:05.268-05:00[America/Bogota]","duration":12106,"projectKey":"","manual":false,"testSource":"JUnit","actors":[{"name":"Carolina","can":["call an API at http://localhost:5000/api"]}],"result":"SUCCESS"}